Exploring Preston and Gilthorpe’s adversarial example
…
dat <- with(solution,
            set_Y(data, intercept, coeffs, residuals))

Warning: There was 1 warning in `transmute()`.
ℹ In argument: `dot = rowSums(across())`.
Caused by warning:
! Using `across()` without supplying `.cols` was deprecated in dplyr 1.1.0.
ℹ Please supply `.cols` instead.

Take a peek:

dat

# A tibble: 200 × 4
      C1    C2     X        Y
   <dbl> <dbl> <dbl>    <dbl>
 1 0.452 0.531     0 -0.00633
 2 0.491 0.601     0  0.606  
 3 0.552 0.198     0 -0.358  
 4 0.337 0.498     0  0.407  
 5 0.588 0.427     0 -0.190  
 6 0.474 0.285     0 -0.518  
 7 0.460 0.801     0  0.289  
 8 0.386 0.579     0  0.467  
 9 0.615 0.563     0  0.544  
10 0.499 0.661     0  0.231  
# ℹ 190 more rows
…
